INDEX VERSION 1.131+D:\training nextgen\project nextgen\.metadata\.plugins\org.eclipse.jdt.core
3160712608.index
2516661362.index
2960705140.index
2815974593.index
3894728141.index
2776539669.index
1846985610.index
523255231.index
1097806368.index
4001040058.index
1177239083.index
1240902853.index
4262651668.index
3074576665.index
1955312604.index
2525316386.index
3495173442.index
337141371.index
3511116069.index
3222382780.index
455956161.index
2004114771.index
1040029916.index
2788294175.index
559731923.index
983133731.index
3695224909.index
1932645302.index
1565395057.index
3952826444.index
2160955972.index
4260658825.index
1981873142.index
2621169635.index
117835207.index
473780136.index
1522049831.index
2400694252.index
3746585909.index
2035961631.index
863219118.index
537545223.index
2629147927.index
4149179508.index
3951961395.index
1684895149.index
162485275.index
2857352867.index
2834587234.index
2953192101.index
606826068.index
1434475530.index
3494597852.index
2066623329.index
406858693.index
1780950109.index
1406980948.index
52536521.index
782165720.index
915601140.index
3495597379.index
1167455686.index
1777987491.index
2306735342.index
3857596576.index
1710900501.index
1959992898.index
4142471190.index
1145413139.index
2636182681.index
4197394075.index
146952324.index
3321092149.index
2525149925.index
891636382.index
3254232835.index
4292213155.index
890173867.index
2214509582.index
2145052658.index
3301119069.index
1663510990.index
1523828141.index
140393538.index
4171370264.index
389749404.index
1307428298.index
908897476.index
2239073239.index
2784636500.index
1824959428.index
7165110.index
1156307637.index
1973477713.index
